{
    "name": "SemanticHeartSegmentation",
    "version": "1.0.0",
    "keywords": [
        "heart",
        "semantic",
        "segmentation"
    ],
    "shortdesc": "Semantic heart segmentation",
    "longdesc": "Semantic heart segmentation",
    "tags": [
        {
            "name": "Source",
            "type": "MainImage",
            "hint": "3D/4D MRI scan",
            "required": true
        }    
    ]
}

